ToonTanks/Binaries/Win32/ToonTanks-Win32-Shipping.exe	2021-04-08T16:40:39.713Z
Engine/Extras/Redist/en-us/UE4PrereqSetup_x86.exe	2020-11-16T00:29:39.500Z
Engine/Binaries/ThirdParty/Oculus/OVRPlugin/OVRPlugin/Win32/OVRPlugin.dll	2020-11-16T00:22:57.154Z
Engine/Binaries/ThirdParty/libsndfile/Win32/libsndfile-1.dll	2020-11-16T00:22:42.156Z
Engine/Binaries/ThirdParty/PhysX3/Win32/VS2015/PxFoundation_x86.dll	2020-11-16T00:23:09.794Z
Engine/Binaries/ThirdParty/PhysX3/Win32/VS2015/PxPvdSDK_x86.dll	2020-11-16T00:23:10.320Z
Engine/Binaries/ThirdParty/PhysX3/Win32/VS2015/PhysX3_x86.dll	2020-11-16T00:23:07.531Z
Engine/Binaries/ThirdParty/PhysX3/Win32/VS2015/PhysX3Cooking_x86.dll	2020-11-16T00:23:08.710Z
Engine/Binaries/ThirdParty/PhysX3/Win32/VS2015/PhysX3Common_x86.dll	2020-11-16T00:23:08.212Z
Engine/Binaries/ThirdParty/PhysX3/Win32/VS2015/APEX_Clothing_x86.dll	2020-11-16T00:23:03.409Z
Engine/Binaries/ThirdParty/PhysX3/Win32/VS2015/APEX_Legacy_x86.dll	2020-11-16T00:23:05.526Z
Engine/Binaries/ThirdParty/PhysX3/Win32/VS2015/ApexFramework_x86.dll	2020-11-16T00:23:06.453Z
Engine/Binaries/ThirdParty/PhysX3/Win32/VS2015/NvCloth_x86.dll	2020-11-16T00:23:07.052Z
Engine/Binaries/ThirdParty/OpenVR/OpenVRv1_0_16/Win32/openvr_api.dll	2020-11-16T00:22:57.884Z
Engine/Binaries/ThirdParty/Ogg/Win32/VS2015/libogg.dll	2020-11-16T00:22:57.168Z
Engine/Binaries/ThirdParty/Vorbis/Win32/VS2015/libvorbis.dll	2020-11-16T00:24:03.091Z
Engine/Binaries/ThirdParty/Vorbis/Win32/VS2015/libvorbisfile.dll	2020-11-16T00:24:03.321Z
ToonTanks.exe	2021-04-08T17:03:28.336Z
